%!PS-Adobe-3.0 EPSF-3.0
%%DocumentNeededResources: font Helvetica
%%+ font Helvetica-Bold
%%+ font Helvetica-Oblique
%%+ font Helvetica-BoldOblique
%%+ font Symbol
%%Title: R Graphics Output
%%Creator: R Software
%%Pages: (atend)
%%BoundingBox: 0 0 720 720
%%EndComments
%%BeginProlog
/bp  { gs sRGB gs } def
% begin .ps.prolog
/gs  { gsave } bind def
/gr  { grestore } bind def
/ep  { showpage gr gr } bind def
/m   { moveto } bind def
/l  { rlineto } bind def
/np  { newpath } bind def
/cp  { closepath } bind def
/f   { fill } bind def
/o   { stroke } bind def
/c   { newpath 0 360 arc } bind def
/r   { 4 2 roll moveto 1 copy 3 -1 roll exch 0 exch rlineto 0 rlineto -1 mul 0 exch rlineto closepath } bind def
/p1  { stroke } bind def
/p2  { gsave bg fill grestore newpath } bind def
/p3  { gsave bg fill grestore stroke } bind def
/p6  { gsave bg eofill grestore newpath } bind def
/p7  { gsave bg eofill grestore stroke } bind def
/t   { 5 -2 roll moveto gsave rotate
       1 index stringwidth pop
       mul neg 0 rmoveto show grestore } bind def
/ta  { 4 -2 roll moveto gsave rotate show } bind def
/tb  { 2 -1 roll 0 rmoveto show } bind def
/cl  { grestore gsave newpath 3 index 3 index moveto 1 index
       4 -1 roll lineto  exch 1 index lineto lineto
       closepath clip newpath } bind def
/rgb { setrgbcolor } bind def
/s   { scalefont setfont } bind def
% end   .ps.prolog
/sRGB { [ /CIEBasedABC
          << /DecodeLMN
               [ { dup 0.03928 le
                        {12.92321 div}
                        {0.055 add 1.055 div 2.4 exp }
                     ifelse
                 } bind dup dup
               ]
             /MatrixLMN [0.412457 0.212673 0.019334
                         0.357576 0.715152 0.119192
                         0.180437 0.072175 0.950301]
             /WhitePoint [0.9505 1.0 1.0890]
           >>
         ] setcolorspace } bind def
/srgb { setcolor } bind def
%%IncludeResource: font Helvetica
/Helvetica findfont
dup length dict begin
  {1 index /FID ne {def} {pop pop} ifelse} forall
  /Encoding ISOLatin1Encoding def
  currentdict
  end
/Font1 exch definefont pop
%%IncludeResource: font Helvetica-Bold
/Helvetica-Bold findfont
dup length dict begin
  {1 index /FID ne {def} {pop pop} ifelse} forall
  /Encoding ISOLatin1Encoding def
  currentdict
  end
/Font2 exch definefont pop
%%IncludeResource: font Helvetica-Oblique
/Helvetica-Oblique findfont
dup length dict begin
  {1 index /FID ne {def} {pop pop} ifelse} forall
  /Encoding ISOLatin1Encoding def
  currentdict
  end
/Font3 exch definefont pop
%%IncludeResource: font Helvetica-BoldOblique
/Helvetica-BoldOblique findfont
dup length dict begin
  {1 index /FID ne {def} {pop pop} ifelse} forall
  /Encoding ISOLatin1Encoding def
  currentdict
  end
/Font4 exch definefont pop
%%IncludeResource: font Symbol
/Symbol findfont
dup length dict begin
  {1 index /FID ne {def} {pop pop} ifelse} forall
  currentdict
  end
/Font5 exch definefont pop
%%EndProlog
%%Page: 1 1
bp
0.00 0.00 720.00 720.00 cl
0 0 0 srgb
2.25 setlinewidth
[] 0 setdash
0 setlinecap
1 setlinejoin
10.00 setmiterlimit
np
60.00 34.54 m
266.67 0 l
o
0.75 setlinewidth
[ 2.25 3.75] 0 setdash
1 setlinecap
np
193.33 26.67 m
0 3.98 l
o
np
193.33 91.01 m
0 -33.84 l
o
0.75 setlinewidth
[] 0 setdash
np
126.67 26.67 m
133.33 0 l
o
np
126.67 91.01 m
133.33 0 l
o
np
60.00 30.65 m
266.67 0 l
0 26.52 l
-266.67 0 l
0 -26.52 l
o
193.33 635.86 2.70 c p1
193.33 635.56 2.70 c p1
193.33 636.06 2.70 c p1
193.33 636.90 2.70 c p1
193.33 657.06 2.70 c p1
193.33 657.82 2.70 c p1
193.33 659.10 2.70 c p1
193.33 659.15 2.70 c p1
193.33 659.35 2.70 c p1
193.33 659.07 2.70 c p1
193.33 659.14 2.70 c p1
193.33 659.51 2.70 c p1
193.33 659.53 2.70 c p1
193.33 659.55 2.70 c p1
193.33 659.56 2.70 c p1
193.33 659.60 2.70 c p1
193.33 659.60 2.70 c p1
193.33 659.70 2.70 c p1
2.25 setlinewidth
[] 0 setdash
0 setlinecap
np
393.33 682.52 m
266.67 0 l
o
0.75 setlinewidth
[ 2.25 3.75] 0 setdash
1 setlinecap
np
526.67 633.95 m
0 31.30 l
o
np
526.67 693.33 m
0 -5.48 l
o
0.75 setlinewidth
[] 0 setdash
np
460.00 633.95 m
133.33 0 l
o
np
460.00 693.33 m
133.33 0 l
o
np
393.33 665.25 m
266.67 0 l
0 22.60 l
-266.67 0 l
0 -22.60 l
o
526.67 40.80 2.70 c p1
526.67 28.40 2.70 c p1
526.67 52.79 2.70 c p1
526.67 52.77 2.70 c p1
526.67 52.79 2.70 c p1
526.67 69.09 2.70 c p1
526.67 69.29 2.70 c p1
526.67 69.45 2.70 c p1
526.67 69.74 2.70 c p1
526.67 70.56 2.70 c p1
526.67 71.87 2.70 c p1
526.67 73.29 2.70 c p1
526.67 73.86 2.70 c p1
526.67 74.78 2.70 c p1
526.67 76.82 2.70 c p1
526.67 77.19 2.70 c p1
526.67 77.38 2.70 c p1
526.67 77.83 2.70 c p1
526.67 78.71 2.70 c p1
526.67 79.64 2.70 c p1
0.00 0.00 720.00 720.00 cl
0 0 0 srgb
0.75 setlinewidth
[] 0 setdash
1 setlinecap
1 setlinejoin
10.00 setmiterlimit
np
193.33 0.00 m
333.34 0 l
o
np
193.33 0.00 m
0 0 l
o
np
526.67 0.00 m
0 0 l
o
np
0.00 26.67 m
0 577.23 l
o
np
0.00 26.67 m
0 0 l
o
np
0.00 170.97 m
0 0 l
o
np
0.00 315.28 m
0 0 l
o
np
0.00 459.59 m
0 0 l
o
np
0.00 603.90 m
0 0 l
o
0.00 0.00 720.00 720.00 cl
0.00 0.00 720.00 720.00 cl
0 0 0 srgb
0.75 setlinewidth
[] 0 setdash
1 setlinecap
1 setlinejoin
10.00 setmiterlimit
np
0.00 0.00 m
720.00 0 l
0 720.00 l
-720.00 0 l
0 -720.00 l
o
ep
%%Trailer
%%Pages: 1
%%EOF
