%!PS-Adobe-3.0 EPSF-3.0
%%DocumentNeededResources: font Helvetica
%%+ font Helvetica-Bold
%%+ font Helvetica-Oblique
%%+ font Helvetica-BoldOblique
%%+ font Symbol
%%Title: R Graphics Output
%%Creator: R Software
%%Pages: (atend)
%%BoundingBox: 0 0 720 720
%%EndComments
%%BeginProlog
/bp  { gs sRGB gs } def
% begin .ps.prolog
/gs  { gsave } bind def
/gr  { grestore } bind def
/ep  { showpage gr gr } bind def
/m   { moveto } bind def
/l  { rlineto } bind def
/np  { newpath } bind def
/cp  { closepath } bind def
/f   { fill } bind def
/o   { stroke } bind def
/c   { newpath 0 360 arc } bind def
/r   { 4 2 roll moveto 1 copy 3 -1 roll exch 0 exch rlineto 0 rlineto -1 mul 0 exch rlineto closepath } bind def
/p1  { stroke } bind def
/p2  { gsave bg fill grestore newpath } bind def
/p3  { gsave bg fill grestore stroke } bind def
/p6  { gsave bg eofill grestore newpath } bind def
/p7  { gsave bg eofill grestore stroke } bind def
/t   { 5 -2 roll moveto gsave rotate
       1 index stringwidth pop
       mul neg 0 rmoveto show grestore } bind def
/ta  { 4 -2 roll moveto gsave rotate show } bind def
/tb  { 2 -1 roll 0 rmoveto show } bind def
/cl  { grestore gsave newpath 3 index 3 index moveto 1 index
       4 -1 roll lineto  exch 1 index lineto lineto
       closepath clip newpath } bind def
/rgb { setrgbcolor } bind def
/s   { scalefont setfont } bind def
% end   .ps.prolog
/sRGB { [ /CIEBasedABC
          << /DecodeLMN
               [ { dup 0.03928 le
                        {12.92321 div}
                        {0.055 add 1.055 div 2.4 exp }
                     ifelse
                 } bind dup dup
               ]
             /MatrixLMN [0.412457 0.212673 0.019334
                         0.357576 0.715152 0.119192
                         0.180437 0.072175 0.950301]
             /WhitePoint [0.9505 1.0 1.0890]
           >>
         ] setcolorspace } bind def
/srgb { setcolor } bind def
%%IncludeResource: font Helvetica
/Helvetica findfont
dup length dict begin
  {1 index /FID ne {def} {pop pop} ifelse} forall
  /Encoding ISOLatin1Encoding def
  currentdict
  end
/Font1 exch definefont pop
%%IncludeResource: font Helvetica-Bold
/Helvetica-Bold findfont
dup length dict begin
  {1 index /FID ne {def} {pop pop} ifelse} forall
  /Encoding ISOLatin1Encoding def
  currentdict
  end
/Font2 exch definefont pop
%%IncludeResource: font Helvetica-Oblique
/Helvetica-Oblique findfont
dup length dict begin
  {1 index /FID ne {def} {pop pop} ifelse} forall
  /Encoding ISOLatin1Encoding def
  currentdict
  end
/Font3 exch definefont pop
%%IncludeResource: font Helvetica-BoldOblique
/Helvetica-BoldOblique findfont
dup length dict begin
  {1 index /FID ne {def} {pop pop} ifelse} forall
  /Encoding ISOLatin1Encoding def
  currentdict
  end
/Font4 exch definefont pop
%%IncludeResource: font Symbol
/Symbol findfont
dup length dict begin
  {1 index /FID ne {def} {pop pop} ifelse} forall
  currentdict
  end
/Font5 exch definefont pop
%%EndProlog
%%Page: 1 1
bp
0.00 0.00 720.00 720.00 cl
0 0 0 srgb
2.25 setlinewidth
[] 0 setdash
0 setlinecap
1 setlinejoin
10.00 setmiterlimit
np
60.00 213.28 m
266.67 0 l
o
0.75 setlinewidth
[ 2.25 3.75] 0 setdash
1 setlinecap
np
193.33 26.67 m
0 117.71 l
o
np
193.33 476.44 m
0 -198.44 l
o
0.75 setlinewidth
[] 0 setdash
np
126.67 26.67 m
133.33 0 l
o
np
126.67 476.44 m
133.33 0 l
o
np
60.00 144.38 m
266.67 0 l
0 133.62 l
-266.67 0 l
0 -133.62 l
o
193.33 654.13 2.70 c p1
193.33 516.75 2.70 c p1
193.33 482.19 2.70 c p1
193.33 570.16 2.70 c p1
193.33 616.85 2.70 c p1
193.33 500.31 2.70 c p1
193.33 482.40 2.70 c p1
193.33 480.40 2.70 c p1
193.33 542.55 2.70 c p1
193.33 581.14 2.70 c p1
193.33 542.55 2.70 c p1
193.33 503.75 2.70 c p1
193.33 551.00 2.70 c p1
193.33 479.47 2.70 c p1
2.25 setlinewidth
[] 0 setdash
0 setlinecap
np
393.33 277.60 m
266.67 0 l
o
0.75 setlinewidth
[ 2.25 3.75] 0 setdash
1 setlinecap
np
526.67 70.33 m
0 130.81 l
o
np
526.67 524.66 m
0 -188.48 l
o
0.75 setlinewidth
[] 0 setdash
np
460.00 70.33 m
133.33 0 l
o
np
460.00 524.66 m
133.33 0 l
o
np
393.33 201.14 m
266.67 0 l
0 135.04 l
-266.67 0 l
0 -135.04 l
o
526.67 567.40 2.70 c p1
526.67 546.29 2.70 c p1
526.67 609.66 2.70 c p1
526.67 565.52 2.70 c p1
526.67 567.46 2.70 c p1
526.67 543.99 2.70 c p1
526.67 568.76 2.70 c p1
526.67 605.53 2.70 c p1
526.67 564.78 2.70 c p1
526.67 691.39 2.70 c p1
526.67 554.01 2.70 c p1
526.67 611.84 2.70 c p1
526.67 693.33 2.70 c p1
526.67 555.95 2.70 c p1
526.67 649.28 2.70 c p1
526.67 615.01 2.70 c p1
0.00 0.00 720.00 720.00 cl
0 0 0 srgb
0.75 setlinewidth
[] 0 setdash
1 setlinecap
1 setlinejoin
10.00 setmiterlimit
np
193.33 0.00 m
333.34 0 l
o
np
193.33 0.00 m
0 0 l
o
np
526.67 0.00 m
0 0 l
o
np
0.00 26.67 m
0 589.36 l
o
np
0.00 26.67 m
0 0 l
o
np
0.00 144.54 m
0 0 l
o
np
0.00 262.41 m
0 0 l
o
np
0.00 380.29 m
0 0 l
o
np
0.00 498.16 m
0 0 l
o
np
0.00 616.03 m
0 0 l
o
0.00 0.00 720.00 720.00 cl
0.00 0.00 720.00 720.00 cl
0 0 0 srgb
0.75 setlinewidth
[] 0 setdash
1 setlinecap
1 setlinejoin
10.00 setmiterlimit
np
0.00 0.00 m
720.00 0 l
0 720.00 l
-720.00 0 l
0 -720.00 l
o
ep
%%Trailer
%%Pages: 1
%%EOF
