%!PS-Adobe-3.0 EPSF-3.0
%%DocumentNeededResources: font Helvetica
%%+ font Helvetica-Bold
%%+ font Helvetica-Oblique
%%+ font Helvetica-BoldOblique
%%+ font Symbol
%%Title: R Graphics Output
%%Creator: R Software
%%Pages: (atend)
%%BoundingBox: 0 0 720 720
%%EndComments
%%BeginProlog
/bp  { gs sRGB gs } def
% begin .ps.prolog
/gs  { gsave } bind def
/gr  { grestore } bind def
/ep  { showpage gr gr } bind def
/m   { moveto } bind def
/l  { rlineto } bind def
/np  { newpath } bind def
/cp  { closepath } bind def
/f   { fill } bind def
/o   { stroke } bind def
/c   { newpath 0 360 arc } bind def
/r   { 4 2 roll moveto 1 copy 3 -1 roll exch 0 exch rlineto 0 rlineto -1 mul 0 exch rlineto closepath } bind def
/p1  { stroke } bind def
/p2  { gsave bg fill grestore newpath } bind def
/p3  { gsave bg fill grestore stroke } bind def
/p6  { gsave bg eofill grestore newpath } bind def
/p7  { gsave bg eofill grestore stroke } bind def
/t   { 5 -2 roll moveto gsave rotate
       1 index stringwidth pop
       mul neg 0 rmoveto show grestore } bind def
/ta  { 4 -2 roll moveto gsave rotate show } bind def
/tb  { 2 -1 roll 0 rmoveto show } bind def
/cl  { grestore gsave newpath 3 index 3 index moveto 1 index
       4 -1 roll lineto  exch 1 index lineto lineto
       closepath clip newpath } bind def
/rgb { setrgbcolor } bind def
/s   { scalefont setfont } bind def
% end   .ps.prolog
/sRGB { [ /CIEBasedABC
          << /DecodeLMN
               [ { dup 0.03928 le
                        {12.92321 div}
                        {0.055 add 1.055 div 2.4 exp }
                     ifelse
                 } bind dup dup
               ]
             /MatrixLMN [0.412457 0.212673 0.019334
                         0.357576 0.715152 0.119192
                         0.180437 0.072175 0.950301]
             /WhitePoint [0.9505 1.0 1.0890]
           >>
         ] setcolorspace } bind def
/srgb { setcolor } bind def
%%IncludeResource: font Helvetica
/Helvetica findfont
dup length dict begin
  {1 index /FID ne {def} {pop pop} ifelse} forall
  /Encoding ISOLatin1Encoding def
  currentdict
  end
/Font1 exch definefont pop
%%IncludeResource: font Helvetica-Bold
/Helvetica-Bold findfont
dup length dict begin
  {1 index /FID ne {def} {pop pop} ifelse} forall
  /Encoding ISOLatin1Encoding def
  currentdict
  end
/Font2 exch definefont pop
%%IncludeResource: font Helvetica-Oblique
/Helvetica-Oblique findfont
dup length dict begin
  {1 index /FID ne {def} {pop pop} ifelse} forall
  /Encoding ISOLatin1Encoding def
  currentdict
  end
/Font3 exch definefont pop
%%IncludeResource: font Helvetica-BoldOblique
/Helvetica-BoldOblique findfont
dup length dict begin
  {1 index /FID ne {def} {pop pop} ifelse} forall
  /Encoding ISOLatin1Encoding def
  currentdict
  end
/Font4 exch definefont pop
%%IncludeResource: font Symbol
/Symbol findfont
dup length dict begin
  {1 index /FID ne {def} {pop pop} ifelse} forall
  currentdict
  end
/Font5 exch definefont pop
%%EndProlog
%%Page: 1 1
bp
0.00 0.00 720.00 720.00 cl
0.00 0.00 720.00 720.00 cl
0 0 0 srgb
0.75 setlinewidth
[] 0 setdash
1 setlinecap
1 setlinejoin
10.00 setmiterlimit
np
26.67 602.75 m
15.41 0 l
o
np
42.08 529.71 m
15.42 0 l
o
np
57.50 401.17 m
15.41 0 l
o
np
72.91 256.93 m
277.46 0 l
o
np
350.37 202.11 m
46.25 0 l
o
np
396.62 131.93 m
15.41 0 l
o
np
412.03 26.67 m
200.39 0 l
o
np
412.03 237.20 m
15.42 0 l
o
np
427.45 219.66 m
15.41 0 l
o
np
442.86 202.12 m
15.42 0 l
o
np
458.28 184.60 m
15.41 0 l
o
np
473.69 167.09 m
15.42 0 l
o
np
489.11 149.61 m
15.41 0 l
o
np
504.52 132.20 m
15.41 0 l
o
np
519.93 114.93 m
15.42 0 l
o
np
535.35 97.94 m
15.41 0 l
o
np
550.76 81.49 m
15.42 0 l
o
np
566.18 66.14 m
15.41 0 l
o
np
581.59 52.98 m
15.42 0 l
o
np
597.01 44.21 m
15.41 0 l
o
np
597.01 61.75 m
15.41 0 l
o
np
581.59 79.30 m
30.83 0 l
o
np
566.18 96.84 m
46.24 0 l
o
np
550.76 114.39 m
61.66 0 l
o
np
535.35 131.93 m
77.07 0 l
o
np
519.93 149.47 m
92.49 0 l
o
np
504.52 167.02 m
107.90 0 l
o
np
489.11 184.56 m
123.31 0 l
o
np
473.69 202.11 m
138.73 0 l
o
np
458.28 219.65 m
154.14 0 l
o
np
442.86 237.19 m
169.56 0 l
o
np
427.45 254.74 m
184.97 0 l
o
np
396.62 272.28 m
215.80 0 l
o
np
350.37 311.75 m
231.22 0 l
o
np
581.59 298.60 m
15.42 0 l
o
np
597.01 289.82 m
15.41 0 l
o
np
597.01 307.37 m
15.41 0 l
o
np
581.59 324.91 m
30.83 0 l
o
np
72.91 545.41 m
277.46 0 l
o
np
350.37 450.12 m
15.42 0 l
o
np
365.79 364.39 m
215.80 0 l
o
np
581.59 351.23 m
15.42 0 l
o
np
597.01 342.46 m
15.41 0 l
o
np
597.01 360.00 m
15.41 0 l
o
np
581.59 377.54 m
30.83 0 l
o
np
365.79 535.85 m
46.24 0 l
o
np
412.03 457.31 m
30.83 0 l
o
np
442.86 417.02 m
138.73 0 l
o
np
581.59 403.86 m
15.42 0 l
o
np
597.01 395.09 m
15.41 0 l
o
np
597.01 412.63 m
15.41 0 l
o
np
581.59 430.18 m
30.83 0 l
o
np
442.86 497.61 m
46.25 0 l
o
np
489.11 456.49 m
107.90 0 l
o
np
597.01 447.72 m
15.41 0 l
o
np
597.01 465.26 m
15.41 0 l
o
np
489.11 538.73 m
30.82 0 l
o
np
519.93 504.74 m
61.66 0 l
o
np
581.59 491.58 m
15.42 0 l
o
np
597.01 482.81 m
15.41 0 l
o
np
597.01 500.35 m
15.41 0 l
o
np
581.59 517.89 m
30.83 0 l
o
np
519.93 572.72 m
46.25 0 l
o
np
566.18 557.37 m
15.41 0 l
o
np
581.59 544.21 m
15.42 0 l
o
np
597.01 535.44 m
15.41 0 l
o
np
597.01 552.98 m
15.41 0 l
o
np
581.59 570.53 m
30.83 0 l
o
np
566.18 588.07 m
46.24 0 l
o
np
412.03 614.39 m
184.98 0 l
o
np
597.01 605.61 m
15.41 0 l
o
np
597.01 623.16 m
15.41 0 l
o
np
350.37 640.70 m
262.05 0 l
o
np
57.50 658.25 m
554.92 0 l
o
np
42.08 675.79 m
570.34 0 l
o
np
26.67 693.33 m
585.75 0 l
o
np
26.67 602.75 m
0 90.58 l
o
np
412.03 26.67 m
0 210.53 l
o
np
427.45 219.66 m
0 35.08 l
o
np
442.86 202.12 m
0 35.07 l
o
np
396.62 131.93 m
0 140.35 l
o
np
458.28 184.60 m
0 35.05 l
o
np
473.69 167.09 m
0 35.02 l
o
np
489.11 149.61 m
0 34.95 l
o
np
504.52 132.20 m
0 34.82 l
o
np
519.93 114.93 m
0 34.54 l
o
np
535.35 97.94 m
0 33.99 l
o
np
550.76 81.49 m
0 32.90 l
o
np
566.18 66.14 m
0 30.70 l
o
np
581.59 52.98 m
0 26.32 l
o
np
597.01 44.21 m
0 17.54 l
o
np
350.37 202.11 m
0 109.64 l
o
np
581.59 298.60 m
0 26.31 l
o
np
597.01 289.82 m
0 17.55 l
o
np
72.91 256.93 m
0 288.48 l
o
np
57.50 401.17 m
0 257.08 l
o
np
42.08 529.71 m
0 146.08 l
o
np
350.37 450.12 m
0 190.58 l
o
np
365.79 364.39 m
0 171.46 l
o
np
581.59 351.23 m
0 26.31 l
o
np
597.01 342.46 m
0 17.54 l
o
np
412.03 457.31 m
0 157.08 l
o
np
442.86 417.02 m
0 80.59 l
o
np
597.01 605.61 m
0 17.55 l
o
np
581.59 403.86 m
0 26.32 l
o
np
489.11 456.49 m
0 82.24 l
o
np
597.01 447.72 m
0 17.54 l
o
np
519.93 504.74 m
0 67.98 l
o
np
581.59 491.58 m
0 26.31 l
o
np
597.01 482.81 m
0 17.54 l
o
np
566.18 557.37 m
0 30.70 l
o
np
581.59 544.21 m
0 26.32 l
o
np
597.01 535.44 m
0 17.54 l
o
np
597.01 395.09 m
0 17.54 l
o
/Font3 findfont 12 s
612.42 671.60 (TUB.2016.07.01) 0 0 t
612.42 636.51 (TUB.2016.08.01) 0 0 t
612.42 373.35 (TUB.2016.09.01) 0 0 t
612.42 338.26 (TUB.2016.10.01) 0 0 t
612.42 355.81 (TUB.2016.11.01) 0 0 t
612.42 601.42 (TUB.2016.12.01) 0 0 t
612.42 618.96 (TUB.2017.01.01) 0 0 t
612.42 390.89 (TUB.2017.02.01) 0 0 t
612.42 408.44 (TUB.2017.03.01) 0 0 t
612.42 425.98 (TUB.2017.04.01) 0 0 t
612.42 443.53 (TUB.2017.05.01) 0 0 t
612.42 461.07 (TUB.2017.06.01) 0 0 t
612.42 478.61 (TUB.2017.07.01) 0 0 t
612.42 496.16 (TUB.2017.08.01) 0 0 t
612.42 513.70 (TUB.2017.09.01) 0 0 t
612.42 583.88 (TUB.2017.10.01) 0 0 t
612.42 531.24 (TUB.2017.11.01) 0 0 t
612.42 548.79 (TUB.2017.12.01) 0 0 t
612.42 566.33 (TUB.2018.01.01) 0 0 t
612.42 689.14 (KIT) 0 ta
-1.440 (.2016.06.01) tb gr
612.42 654.05 (KIT) 0 ta
-1.440 (.2016.07.01) tb gr
612.42 285.63 (KIT) 0 ta
-1.440 (.2016.08.01) tb gr
612.42 320.72 (KIT) 0 ta
-1.440 (.2016.09.01) tb gr
612.42 303.17 (KIT) 0 ta
-1.440 (.2016.10.01) tb gr
612.42 268.09 (KIT) 0 ta
-1.440 (.2016.11.01) tb gr
612.42 22.47 (KIT) 0 ta
-1.440 (.2016.12.01) tb gr
612.42 250.54 (KIT) 0 ta
-1.440 (.2017.01.01) tb gr
612.42 233.00 (KIT) 0 ta
-1.440 (.2017.02.01) tb gr
612.42 215.46 (KIT) 0 ta
-1.440 (.2017.03.01) tb gr
612.42 197.91 (KIT) 0 ta
-1.440 (.2017.04.01) tb gr
612.42 180.37 (KIT) 0 ta
-1.440 (.2017.05.01) tb gr
612.42 162.82 (KIT) 0 ta
-1.440 (.2017.06.01) tb gr
612.42 145.28 (KIT) 0 ta
-1.440 (.2017.07.01) tb gr
612.42 127.74 (KIT) 0 ta
-1.440 (.2017.08.01) tb gr
612.42 110.19 (KIT) 0 ta
-1.440 (.2017.09.01) tb gr
612.42 92.65 (KIT) 0 ta
-1.440 (.2017.10.01) tb gr
612.42 75.10 (KIT) 0 ta
-1.440 (.2017.11.01) tb gr
612.42 40.02 (KIT) 0 ta
-1.440 (.2017.12.01) tb gr
612.42 57.56 (KIT) 0 ta
-1.440 (.2018.01.01) tb gr
ep
%%Trailer
%%Pages: 1
%%EOF
