%!PS-Adobe-3.0 EPSF-3.0
%%DocumentNeededResources: font Helvetica
%%+ font Helvetica-Bold
%%+ font Helvetica-Oblique
%%+ font Helvetica-BoldOblique
%%+ font Symbol
%%Title: R Graphics Output
%%Creator: R Software
%%Pages: (atend)
%%BoundingBox: 0 0 720 720
%%EndComments
%%BeginProlog
/bp  { gs sRGB gs } def
% begin .ps.prolog
/gs  { gsave } bind def
/gr  { grestore } bind def
/ep  { showpage gr gr } bind def
/m   { moveto } bind def
/l  { rlineto } bind def
/np  { newpath } bind def
/cp  { closepath } bind def
/f   { fill } bind def
/o   { stroke } bind def
/c   { newpath 0 360 arc } bind def
/r   { 4 2 roll moveto 1 copy 3 -1 roll exch 0 exch rlineto 0 rlineto -1 mul 0 exch rlineto closepath } bind def
/p1  { stroke } bind def
/p2  { gsave bg fill grestore newpath } bind def
/p3  { gsave bg fill grestore stroke } bind def
/p6  { gsave bg eofill grestore newpath } bind def
/p7  { gsave bg eofill grestore stroke } bind def
/t   { 5 -2 roll moveto gsave rotate
       1 index stringwidth pop
       mul neg 0 rmoveto show grestore } bind def
/ta  { 4 -2 roll moveto gsave rotate show } bind def
/tb  { 2 -1 roll 0 rmoveto show } bind def
/cl  { grestore gsave newpath 3 index 3 index moveto 1 index
       4 -1 roll lineto  exch 1 index lineto lineto
       closepath clip newpath } bind def
/rgb { setrgbcolor } bind def
/s   { scalefont setfont } bind def
% end   .ps.prolog
/sRGB { [ /CIEBasedABC
          << /DecodeLMN
               [ { dup 0.03928 le
                        {12.92321 div}
                        {0.055 add 1.055 div 2.4 exp }
                     ifelse
                 } bind dup dup
               ]
             /MatrixLMN [0.412457 0.212673 0.019334
                         0.357576 0.715152 0.119192
                         0.180437 0.072175 0.950301]
             /WhitePoint [0.9505 1.0 1.0890]
           >>
         ] setcolorspace } bind def
/srgb { setcolor } bind def
%%IncludeResource: font Helvetica
/Helvetica findfont
dup length dict begin
  {1 index /FID ne {def} {pop pop} ifelse} forall
  /Encoding ISOLatin1Encoding def
  currentdict
  end
/Font1 exch definefont pop
%%IncludeResource: font Helvetica-Bold
/Helvetica-Bold findfont
dup length dict begin
  {1 index /FID ne {def} {pop pop} ifelse} forall
  /Encoding ISOLatin1Encoding def
  currentdict
  end
/Font2 exch definefont pop
%%IncludeResource: font Helvetica-Oblique
/Helvetica-Oblique findfont
dup length dict begin
  {1 index /FID ne {def} {pop pop} ifelse} forall
  /Encoding ISOLatin1Encoding def
  currentdict
  end
/Font3 exch definefont pop
%%IncludeResource: font Helvetica-BoldOblique
/Helvetica-BoldOblique findfont
dup length dict begin
  {1 index /FID ne {def} {pop pop} ifelse} forall
  /Encoding ISOLatin1Encoding def
  currentdict
  end
/Font4 exch definefont pop
%%IncludeResource: font Symbol
/Symbol findfont
dup length dict begin
  {1 index /FID ne {def} {pop pop} ifelse} forall
  currentdict
  end
/Font5 exch definefont pop
%%EndProlog
%%Page: 1 1
bp
0.00 0.00 720.00 720.00 cl
0.00 0.00 720.00 720.00 cl
0 0 0 srgb
0.75 setlinewidth
[] 0 setdash
1 setlinecap
1 setlinejoin
10.00 setmiterlimit
np
26.67 445.00 m
15.41 0 l
o
np
42.08 279.54 m
277.46 0 l
o
np
319.54 207.86 m
30.83 0 l
o
np
350.37 127.54 m
138.74 0 l
o
np
489.11 88.07 m
15.41 0 l
o
np
504.52 48.60 m
77.07 0 l
o
np
581.59 35.44 m
15.42 0 l
o
np
597.01 26.67 m
15.41 0 l
o
np
597.01 44.21 m
15.41 0 l
o
np
581.59 61.75 m
30.83 0 l
o
np
504.52 127.54 m
46.24 0 l
o
np
550.76 105.61 m
15.42 0 l
o
np
566.18 88.07 m
30.83 0 l
o
np
597.01 79.30 m
15.41 0 l
o
np
597.01 96.84 m
15.41 0 l
o
np
566.18 123.16 m
30.83 0 l
o
np
597.01 114.39 m
15.41 0 l
o
np
597.01 131.93 m
15.41 0 l
o
np
550.76 149.47 m
61.66 0 l
o
np
489.11 167.02 m
123.31 0 l
o
np
350.37 288.18 m
138.74 0 l
o
np
489.11 251.45 m
15.41 0 l
o
np
504.52 210.88 m
61.66 0 l
o
np
566.18 193.33 m
30.83 0 l
o
np
597.01 184.56 m
15.41 0 l
o
np
597.01 202.11 m
15.41 0 l
o
np
566.18 228.42 m
30.83 0 l
o
np
597.01 219.65 m
15.41 0 l
o
np
597.01 237.19 m
15.41 0 l
o
np
504.52 292.02 m
61.66 0 l
o
np
566.18 276.67 m
15.41 0 l
o
np
581.59 263.51 m
15.42 0 l
o
np
597.01 254.74 m
15.41 0 l
o
np
597.01 272.28 m
15.41 0 l
o
np
581.59 289.82 m
30.83 0 l
o
np
566.18 307.37 m
46.24 0 l
o
np
489.11 324.91 m
123.31 0 l
o
np
319.54 351.23 m
277.47 0 l
o
np
597.01 342.46 m
15.41 0 l
o
np
597.01 360.00 m
15.41 0 l
o
np
42.08 610.45 m
308.29 0 l
o
np
350.37 567.05 m
77.08 0 l
o
np
427.45 546.03 m
15.41 0 l
o
np
442.86 521.53 m
15.42 0 l
o
np
458.28 498.84 m
30.83 0 l
o
np
489.11 479.79 m
15.41 0 l
o
np
504.52 459.23 m
15.41 0 l
o
np
519.93 435.66 m
15.42 0 l
o
np
535.35 414.82 m
30.83 0 l
o
np
566.18 399.47 m
15.41 0 l
o
np
581.59 386.32 m
15.42 0 l
o
np
597.01 377.54 m
15.41 0 l
o
np
597.01 395.09 m
15.41 0 l
o
np
581.59 412.63 m
30.83 0 l
o
np
566.18 430.18 m
46.24 0 l
o
np
535.35 456.49 m
61.66 0 l
o
np
597.01 447.72 m
15.41 0 l
o
np
597.01 465.26 m
15.41 0 l
o
np
519.93 482.81 m
92.49 0 l
o
np
504.52 500.35 m
107.90 0 l
o
np
489.11 517.89 m
123.31 0 l
o
np
458.28 544.21 m
138.73 0 l
o
np
597.01 535.44 m
15.41 0 l
o
np
597.01 552.98 m
15.41 0 l
o
np
442.86 570.53 m
169.56 0 l
o
np
427.45 588.07 m
184.97 0 l
o
np
350.37 653.86 m
200.39 0 l
o
np
550.76 631.93 m
15.42 0 l
o
np
566.18 614.39 m
30.83 0 l
o
np
597.01 605.61 m
15.41 0 l
o
np
597.01 623.16 m
15.41 0 l
o
np
566.18 649.47 m
30.83 0 l
o
np
597.01 640.70 m
15.41 0 l
o
np
597.01 658.25 m
15.41 0 l
o
np
550.76 675.79 m
61.66 0 l
o
np
26.67 693.33 m
585.75 0 l
o
np
26.67 445.00 m
0 248.33 l
o
np
597.01 26.67 m
0 17.54 l
o
np
581.59 35.44 m
0 26.31 l
o
np
504.52 48.60 m
0 78.94 l
o
np
489.11 88.07 m
0 78.95 l
o
np
350.37 127.54 m
0 160.64 l
o
np
489.11 251.45 m
0 73.46 l
o
np
550.76 105.61 m
0 43.86 l
o
np
566.18 88.07 m
0 35.09 l
o
np
504.52 210.88 m
0 81.14 l
o
np
597.01 79.30 m
0 17.54 l
o
np
319.54 207.86 m
0 143.37 l
o
np
566.18 193.33 m
0 35.09 l
o
np
42.08 279.54 m
0 330.91 l
o
np
597.01 114.39 m
0 17.54 l
o
np
566.18 276.67 m
0 30.70 l
o
np
350.37 567.05 m
0 86.81 l
o
np
581.59 263.51 m
0 26.31 l
o
np
597.01 342.46 m
0 17.54 l
o
np
597.01 184.56 m
0 17.55 l
o
np
427.45 546.03 m
0 42.04 l
o
np
550.76 631.93 m
0 43.86 l
o
np
442.86 521.53 m
0 49.00 l
o
np
566.18 614.39 m
0 35.08 l
o
np
458.28 498.84 m
0 45.37 l
o
np
597.01 605.61 m
0 17.55 l
o
np
489.11 479.79 m
0 38.10 l
o
np
597.01 640.70 m
0 17.55 l
o
np
504.52 459.23 m
0 41.12 l
o
np
597.01 254.74 m
0 17.54 l
o
np
597.01 219.65 m
0 17.54 l
o
np
519.93 435.66 m
0 47.15 l
o
np
535.35 414.82 m
0 41.67 l
o
np
566.18 399.47 m
0 30.71 l
o
np
597.01 447.72 m
0 17.54 l
o
np
597.01 535.44 m
0 17.54 l
o
np
581.59 386.32 m
0 26.31 l
o
np
597.01 377.54 m
0 17.55 l
o
/Font3 findfont 12 s
612.42 162.82 (TUB.2016.07.01) 0 0 t
612.42 408.44 (TUB.2016.08.01) 0 0 t
612.42 373.35 (TUB.2016.09.01) 0 0 t
612.42 390.89 (TUB.2016.10.01) 0 0 t
612.42 443.53 (TUB.2016.11.01) 0 0 t
612.42 531.24 (TUB.2016.12.01) 0 0 t
612.42 548.79 (TUB.2017.01.01) 0 0 t
612.42 425.98 (TUB.2017.02.01) 0 0 t
612.42 566.33 (TUB.2017.03.01) 0 0 t
612.42 461.07 (TUB.2017.04.01) 0 0 t
612.42 478.61 (TUB.2017.05.01) 0 0 t
612.42 496.16 (TUB.2017.06.01) 0 0 t
612.42 513.70 (TUB.2017.07.01) 0 0 t
612.42 583.88 (TUB.2017.08.01) 0 0 t
612.42 601.42 (TUB.2017.09.01) 0 0 t
612.42 636.51 (TUB.2017.10.01) 0 0 t
612.42 618.96 (TUB.2017.11.01) 0 0 t
612.42 671.60 (TUB.2017.12.01) 0 0 t
612.42 654.05 (TUB.2018.01.01) 0 0 t
612.42 689.14 (KIT) 0 ta
-1.440 (.2016.06.01) tb gr
612.42 57.56 (KIT) 0 ta
-1.440 (.2016.07.01) tb gr
612.42 75.10 (KIT) 0 ta
-1.440 (.2016.08.01) tb gr
612.42 40.02 (KIT) 0 ta
-1.440 (.2016.09.01) tb gr
612.42 338.26 (KIT) 0 ta
-1.440 (.2016.10.01) tb gr
612.42 320.72 (KIT) 0 ta
-1.440 (.2016.11.01) tb gr
612.42 145.28 (KIT) 0 ta
-1.440 (.2016.12.01) tb gr
612.42 110.19 (KIT) 0 ta
-1.440 (.2017.01.01) tb gr
612.42 127.74 (KIT) 0 ta
-1.440 (.2017.02.01) tb gr
612.42 355.81 (KIT) 0 ta
-1.440 (.2017.03.01) tb gr
612.42 303.17 (KIT) 0 ta
-1.440 (.2017.04.01) tb gr
612.42 22.47 (KIT) 0 ta
-1.440 (.2017.05.01) tb gr
612.42 180.37 (KIT) 0 ta
-1.440 (.2017.06.01) tb gr
612.42 197.91 (KIT) 0 ta
-1.440 (.2017.07.01) tb gr
612.42 285.63 (KIT) 0 ta
-1.440 (.2017.08.01) tb gr
612.42 250.54 (KIT) 0 ta
-1.440 (.2017.09.01) tb gr
612.42 268.09 (KIT) 0 ta
-1.440 (.2017.10.01) tb gr
612.42 92.65 (KIT) 0 ta
-1.440 (.2017.11.01) tb gr
612.42 215.46 (KIT) 0 ta
-1.440 (.2017.12.01) tb gr
612.42 233.00 (KIT) 0 ta
-1.440 (.2018.01.01) tb gr
ep
%%Trailer
%%Pages: 1
%%EOF
